Sample	salmon_version	samp_type	opt_type	quant_errors	num_libraries	library_types	frag_dist_length	seq_bias_correct	gc_bias_correct	num_bias_bins	mapping_type	num_valid_targets	num_decoy_targets	num_eq_classes	serialized_eq_classes	eq_class_properties	length_classes	index_seq_hash	index_name_hash	index_seq_hash512	index_name_hash512	index_decoy_seq_hash	index_decoy_name_hash	num_bootstraps	num_processed	num_mapped	num_decoy_fragments	num_dovetail_fragments	num_fragments_filtered_vm	num_alignments_below_threshold_for_mapped_fragments_vm	percent_mapped	call	start_time	end_time
LV001	1.1.0	none	vb	[]	1	['ISR']	1001	True	True	4096	mapping	226100	190	686835	False	['range_factorized']	[530, 710, 1200, 2400, 103000]	hash_1	hash_2	hash_3	hash_4	hash_5	hash_6	0	57604210	42644503	4876771	134529	5681277	66065797	74.02732425985006	quant	Sun Jun 28 23:00:00 2020	Sun Jun 28 23:10:00 2020
LV002	1.1.0	none	vb	[]	1	['ISR']	1001	True	True	4096	mapping	226100	190	684899	False	['range_factorized']	[530, 710, 1200, 2400, 103000]	hash_1	hash_2	hash_3	hash_4	hash_5	hash_6	0	55123650	36532367	5357683	146712	5862398	74923692	66.27351199465231	quant	Sun Jun 28 22:55:00 2020	Sun Jun 28 23:05:00 2020
