plateID,donor,time,barcode,Kit_ID,date,Angiopoietin-1,Angiopoietin-2,APRIL,CCL1,CCL2,CCL3,CCL4,CCL5,CCL11,CCL15,CCL22,CD30,Coag Factor XIV,CXCL4,CXCL10,CXCL13,D-dimer,Endothelin-1,EN-RAGE,FGF basic,G-CSF,GDF-15,GM-CSF,IL-1a,IL-5,IL-6R alpha,IL-7,IL-15,IL-17,IL-18,Kallikrein 3,Kallikrein 5,Kallikrein 6,Lipocalin-2,MMP-1,Osteopontin,PDGF-BB,Pentraxin 3,Thrombomodulin,Tie-2,Tissue Factor,TNF RI,VEGF,VEGF-D,vWF-A2,IFN-g,IL-10,IL-12p70,IL-13,IL-1b,IL-2,IL-4,IL-6,IL-8,TNF-a
1A01,ABCDE001,Recruitment,SM2004247657,,16/08/2020,1788.48,333.32,122.46,12.88,117.70,56.94,425.87,332.17,,,,,3629.324337,84.26,713.31,34.94,8545710.415,3.988227248,240771.93,0.37,65.32,719.04,216.60,62.22,,1346.71,,,30.64,142.87,,54.81,,490944.64,79.49,,,,1362.32,457.1519496,1441.28,765.71,,89.77,142.19,7.524765852,0.264245964,1.002312564,13.15609020,10.44267927,0.311979293,0.04171601,13.8257021,2302.055426,2.250679134
1A02,ABCDE001,3,,CCP0002,19/08/2020,96.09,66.07342601,54.61,,31.2451564,,203.4794403,335.15,201.03,434.18,12.75,1.17,3611.284793,,33.33,79.71,27496.98163,3.969171824,1632.88,45.82,22.36967506,33.09,10.54627546,53.17,,69.14201451,,,14.11,25.14495960,,,42.17,84723.59,,,,54.02,48.9166103,450.7924940,248.23,,,20.9,77.9,0.272716732,0.102987763,0.243838654,5.679255790,0.492649497,0.105044640,0.056695608,0.13378599,55.23106234,0.027574785
