subjid,daily_dsstdat,dsterm,daily_invasive_prtrt,invasive_proccur,daily_noninvasive_prtrt,noninvasive_proccur,daily_fio2_combined,oxy_vsorresu,severity_score,severity_indication
ABCDE-0001,2020-08-12,,True,True,False,True,0.28,,4,Invasive mechanical ventilation
ABCDE-0001,2020-08-13,,False,False,True,True,,,3,Noninvasive ventilation
ABCDE-0001,2020-08-14,,False,False,False,False,0.28,,2,Oxygen therapy
ABCDE-0001,2020-08-19,Discharged alive,False,False,False,False,,,1,No oxygen requirement
ABCDE-0002,2020-08-16,,False,False,True,True,0.21,,3,Noninvasive ventilation
ABCDE-0003,2020-08-16,,False,False,True,True,0.21,,3,Noninvasive ventilation
