Patient_ID,Sample_Code,Kit_ID,Time_Point,Sample_Collected,Days_since_onset,IgM_Spike_OD,IgM_Spike_S.CO,IgM_Spike_Result,IgG_Spike_OD,IgG_Spike_S.CO,IgG_Spike_Result,IgM_NP_OD,IgM_NP_S.CO,IgM_NP_Result,IgG_NP_OD,IgG_NP_S.CO,IgG_NP_Result,IgM_S1_OD,IgM_S1_S.CO,IgM_S1_result,IgG_S1_OD,IgG_S1_S.CO,IgG_S1_result,age,sex,dsstdat,cestdat,hostdat,rr_vsorres,oxy_vsorres,daily_gcs_vsorres,daily_bun_lborres,daily_crp_lborres,any_icu,dsterm,death,any_invasive,daily_nasaloxy_cmtrt
ABCDE-0001,SM2004654750,CCP0001,Day 1,2020-08-16,15,0.047,0.285,Negative,0.068,0.485,Negative,0.192,0.318,Negative,0.056,0.493,Negative,0.083,0.76,Negative,0.042,0.36,Negative,55.17363958472019,Male,2020-08-03,2020-08-01,2020-08-02,30,90,13,10.9,100,True,Discharged alive,False,False,False
ABCDE-0001,SM2004654750,CCP0001,Day 1,2020-08-17,16,0.047,0.285,Negative,0.068,0.485,Negative,0.192,0.318,Negative,0.056,0.493,Negative,0.083,0.76,Negative,0.042,0.36,Negative,55.17363958472019,Male,2020-08-03,2020-08-01,2020-08-02,30,90,13,10.9,100,True,Discharged alive,False,False,False
ABCDE-0002,10238256,CVRI0003,Day 1,2020-08-16,15,0.047,0.285,Negative,0.068,0.485,Negative,0.192,0.318,Negative,0.056,0.493,Negative,0.083,0.76,Negative,0.042,0.36,Negative,55.17363958472019,Female,2020-08-03,2020-08-01,2020-08-02,30,90,13,10.9,100,False,Discharged alive,False,False,False
