sample_id,kit_id,patient_id,sample_linkage_notes,patient_linkage_notes
010003569,CVRI0003,ABCDE-0002,lims barcode/SMG prefix,
010032490,CVRI0003,ABCDE-0002,lims barcode/SMG prefix,
010045824,CVRI0003,ABCDE-0002,lims barcode/SMG prefix,
010238256,CVRI0003,ABCDE-0002,lims barcode/SMG prefix,
010254943,CVRI0003,ABCDE-0002,lims barcode/SMG prefix,
010394162,CVRI0003,ABCDE-0002,lims barcode/SMG prefix,
010452319,CVRI0003,ABCDE-0002,lims barcode/SMG prefix,
010643435,CVRI0003,ABCDE-0002,lims barcode/SMG prefix,
010987522,CVRI0003,ABCDE-0002,lims barcode/SMG prefix,
010994342,CVRI0003,ABCDE-0002,lims barcode/SMG prefix,
10003569,CVRI0003,ABCDE-0002,lims barcode/SMG0 prefix,
10032490,CVRI0003,ABCDE-0002,lims barcode/SMG0 prefix,
10045824,CVRI0003,ABCDE-0002,lims barcode/SMG0 prefix,
10238256,CVRI0003,ABCDE-0002,lims barcode/SMG0 prefix,
10254943,CVRI0003,ABCDE-0002,lims barcode/SMG0 prefix,
10394162,CVRI0003,ABCDE-0002,lims barcode/SMG0 prefix,
10394162-R,CVRI0003,ABCDE-0002,a source,
10452319,CVRI0003,ABCDE-0002,lims barcode/SMG0 prefix,
10643435,CVRI0003,ABCDE-0002,lims barcode/SMG0 prefix,
10987522,CVRI0003,ABCDE-0002,lims barcode/SMG0 prefix,
10994342,CVRI0003,ABCDE-0002,lims barcode/SMG0 prefix,
CCP0001,CCP0001,ABCDE-0001,lims kit,attribution notes
CCP0001-R,CCP0001,ABCDE-0001,a source,
CCP0002,CCP0002,ABCDE-0001,lims kit,attribution notes
CCP0004,CCP0004,ABCDE-0003,lims kit,attribution notes
CCP0005,CCP0005,ABCDE-0001,lims kit,attribution notes
CVRI0003,CVRI0003,ABCDE-0002,lims kit,attribution notes
SM2004035993,CVRI0003,ABCDE-0002,lims barcode,
SM2004073842,CCP0001,ABCDE-0001,lims barcode,
SM2004083122,CCP0001,ABCDE-0001,lims barcode,
SM2004162489,CCP0001,ABCDE-0001,lims barcode,
SM2004177862,CCP0001,ABCDE-0001,lims barcode,
SM2004197406,CCP0002,ABCDE-0001,lims barcode,
SM2004234025,CCP0005,ABCDE-0001,lims barcode,
SM2004240968,CCP0002,ABCDE-0001,lims barcode,
SM2004242450,CCP0004,ABCDE-0003,lims barcode,
SM2004247657,CCP0001,ABCDE-0001,lims barcode,
SM2004248774,CCP0002,ABCDE-0001,lims barcode,
SM2004286327,CCP0004,ABCDE-0003,lims barcode,
SM2004318910,CCP0002,ABCDE-0001,lims barcode,
SM2004352261,CCP0001,ABCDE-0001,lims barcode,
SM2004369589,CCP0002,ABCDE-0001,lims barcode,
SM2004383870,CCP0001,ABCDE-0001,lims barcode,
SM2004390408,CCP0002,ABCDE-0001,lims barcode,
SM2004443045,CCP0001,ABCDE-0001,lims barcode,
SM2004483208,CCP0004,ABCDE-0003,lims barcode,
SM2004558756,CCP0001,ABCDE-0001,lims barcode,
SM2004581750,CCP0001,ABCDE-0001,lims barcode,
SM2004592714,CCP0001,ABCDE-0001,lims barcode,
SM2004635595,CCP0001,ABCDE-0001,lims barcode,
SM2004637026,CCP0001,ABCDE-0001,lims barcode,
SM2004654750,CCP0001,ABCDE-0001,lims barcode,
SM2004674906,CCP0004,ABCDE-0003,lims barcode,
SM2004796773,CCP0004,ABCDE-0003,lims barcode,
SM2004799139,CCP0001,ABCDE-0001,lims barcode,
SM2004812809,CCP0001,ABCDE-0001,lims barcode,
SM2004842084,CCP0002,ABCDE-0001,lims barcode,
SM2004898573,CCP0004,ABCDE-0003,lims barcode,
SM2004928258,CCP0004,ABCDE-0003,lims barcode,
SM2004968688,CCP0002,ABCDE-0001,lims barcode,
SM2004983528,CCP0001,ABCDE-0001,lims barcode,
SM2009352261,CCP0001,ABCDE-0001,lims barcode,
SM2009352266,CCP0001,ABCDE-0001,lims barcode,
SM2009352267,CCP0001,ABCDE-0001,lims barcode,
SMG010003569,CVRI0003,ABCDE-0002,lims barcode,
SMG010032490,CVRI0003,ABCDE-0002,lims barcode,
SMG010045824,CVRI0003,ABCDE-0002,lims barcode,
SMG010238256,CVRI0003,ABCDE-0002,lims barcode,
SMG010254943,CVRI0003,ABCDE-0002,lims barcode,
SMG010394162,CVRI0003,ABCDE-0002,lims barcode,
SMG010452319,CVRI0003,ABCDE-0002,lims barcode,
SMG010643435,CVRI0003,ABCDE-0002,lims barcode,
SMG010987522,CVRI0003,ABCDE-0002,lims barcode,
SMG010994342,CVRI0003,ABCDE-0002,lims barcode,
