patient_id,timepoint,kit_id,sample_id,precursor_id,value
ABCDE-0001,Day 1,CCP0001,SM2004592714,precursor_1,25.07672129
ABCDE-0001,Day 1,CCP0001,SM2004592714,precursor_2(UniMod:1)ABCDEF(UniMod:2)GH1,313.0910941
ABCDE-0001,Day 1,CCP0001,SM2004592714,precursor_3(UniMod:2)AABC3,51484.01334
ABCDE-0001,Day 3,CCP0002,SM2004369589,precursor_1,15.72262518
ABCDE-0001,Day 3,CCP0002,SM2004369589,precursor_2(UniMod:1)ABCDEF(UniMod:2)GH1,208.7407169
ABCDE-0001,Day 3,CCP0002,SM2004369589,precursor_3(UniMod:2)AABC3,59877.48503
ABCDE-0003,Day 1,CCP0004,SM2004242450,precursor_1,11.08058777
ABCDE-0003,Day 1,CCP0004,SM2004242450,precursor_2(UniMod:1)ABCDEF(UniMod:2)GH1,234.0955566
ABCDE-0003,Day 1,CCP0004,SM2004242450,precursor_3(UniMod:2)AABC3,56939.99238
