patient_id,date_taken,sample_id,kit_id,day,crf_barcode,rna_extraction_date,rna_start_extraction_time,rna_extraction_volume,extraction_kit_lot_no,collection_tube,extraction_operator,qubit_br_rna_ng/µl,qubit_dna_hs_ng/µl,qubit_rna_dna_percentage,fa_conc_ng/µl,rqn,dnase_treatment,sample_qc_pass_fail,rna_volume_to_add_µl,rna_input_ng,library_prep_start_date,library_prep_finish_date,library_prep_operator,library_prep_kit_lot_no,plate_id,well,index_plate,index_well,i7_barcode,i5_barcode,pcr_cycles,library_conc_ng/µl,peak_fragment_size_bp,library_molarity_nm,sequenced,sequence_date,platform,run_id,number_of_clusters_pf
ABCDE-0001,2020-08-16,CCP0001,CCP0001,Day 1,crf_barcode_1,2020-08-21,10:00:00,10.0,kit_lot_1,a_tube_type,initials,50.0,12.4,8.4,120.0,5.5,,Passed,3.5,250,2020-08-22,2020-08-23,A name,kit_lot_2,a_plate_id,A01,an_index_plate,A01,an_i7_barcode,an_i5_barcode,13,25.5,270,210,True,2020-08-23,NextSeq2000,a_run,53294184
ABCDE-0001,2020-08-19,CCP0002,CCP0002,Day 3,crf_barcode_2,2020-08-22,10:00:00,9.0,kit_lot_1,a_tube_type,initials,60.0,4.6,4.5,65.0,6.6,,Passed,2.2,250,2020-08-23,2020-08-24,A name,kit_lot_2,a_plate_id,B01,an_index_plate,B01,an_i7_barcode,an_i5_barcode,13,38.2,290,195,True,2020-08-24,NextSeq2000,a_run,46274236
ABCDE-0002,2020-08-23,10394162,CVRI0003,Day 1,crf_barcode_3,2020-08-23,10:00:00,10.0,kit_lot_1,a_tube_type,initials,75.2,,,0.3,10.0,,Passed,,,,,,,,,,,,,,,,,False,,,,
,2020-03-09,ohgodwhatevenisthis,,Day 3,crf_barcode_4,2020-03-09,10:00:00,9.0,kit_lot_2,a_tube_type,initials,45.2,5.4,4.9,74.2,7.5,,Passed,3.4,250,2020-09-04,2020-09-05,A name,kit_lot_3,another_plate_id,A01,another_index_plate,A01,an_i7_barcode,an_i5_barcode,13,32.4,270,187,True,2020-09-06,NextSeq2000,another_run,44859287
