Sample Code	Site	Patient ID	Kit ID	ISARIC ID (if known)	Sample Type	Date Taken	Freezer		Tower/Drawer	Box	Location	Cell Count	Number of Vials	Cell Count per Vial	Quality Incidents
SM2004608308	A location - A site	123-00001	PHS12345	ABCDE-0001	Tempus 3ml - Blood-RNA	18/09/2020	Freezer 1 (-80)		A01	A	B02
SM2004487251	A location - A site	123-00001	PHS12345	ABCDE-0001	NUNC-Brn - Whole Blood	18/09/2020	Freezer 1 (-80)		001	A	B02
SM2004788739	A location - A site	123-00001	PHS12345	ABCDE-0001	NUNC-Brn - Whole Blood	18/09/2020	Freezer 1 (-80)		001	A	B02
SM2004629443	A location - A site	123-00001	PHS12345	ABCDE-0001	NUNC-Brn - Whole Blood	18/09/2020	Freezer 1 (-80)		001	A	B02