﻿UpdatedID,Visit Day,Box ID,Barcode,Assay,Value,,,,
ABCDE-0001,3,1A1,0,IFN-γ,0.427461,,,,
ABCDE-0001,3,1A1,0,IL-10,0.047362,,,,
ABCDE-0001,3,1A1,0,IL-12p70,0.73921,,,,
ABCDE-0001,3,1A1,0,IL-13,0.059362,,,,
ABCDE-0001,3,1A1,0,IL-1β,4.274623,,,,
ABCDE-0001,Convalescent,1A1,0,IL-2,2.102944,,,,
,,1A1,SM2004352261,IFN-γ,0.473615,,,,
,,1A1,SM2004352261,IL-10,0.57653,,,,
,,1A1,SM2004352261,IL-12p70,0.571634,,,,
,,1A1,SM2004352261,IL-13,0.012456,,,,
,,1A1,SM2004352261,IL-1β,4.274623,,,,
,,1A1,SM2004352261,IL-2,1.585626,,,,
,,1A1,10452319,IFN-γ,1.102157,,,,
,,1A1,10452319,IL-10,0.041015,,,,
,,1A1,10452319,IL-12p70,0.63467,,,,
,,1A1,10452319,IL-13,0.09823,,,,
,,1A1,10452319,IL-1β,5.02346,,,,
,,1A1,10452319,IL-2,2.1236,,,,
,,1A1,SM2004286327,IFN-γ,0.234677,,,,
,,1A1,SM2004286327,IL-10,0.6713,,,,
,,1A1,SM2004286327,IL-12p70,0.23476,,,,
,,1A1,SM2004286327,IL-13,0.9943,,,,
,,1A1,SM2004286327,IL-1β,3.01324,,,,
,,1A1,SM2004286327,IL-2,1.23673,,,,
,,1A1,ohgodwhatevenisthis,IL-10,0.54321,,,,